{
  "AWSTemplateFormatVersion" : "2010-09-09",
  
  "Description" : "AWS CloudFormation - This template will deploy a AWS Linux instance with python and pip and awscli and update the OS.", 
  
  "Parameters" : {
      
    "KeyName": {
      "Description" : "Name of an existing EC2 KeyPair to enable SSH access to the instance",
      "Type": "AWS::EC2::KeyPair::KeyName",
      "ConstraintDescription" : "must be the name of an existing EC2 KeyPair."
    },    

    "SubnetName": {
      "Description" : "Which subnet would you like?",
      "Type": "AWS::EC2::Subnet::Id"
    },

    "InstanceType" : {
      "Description" : "Python Server EC2 instance type",
      "Type" : "String",
      "Default" : "t2.small",
      "AllowedValues" : [ "t1.micro", "t2.nano", "t2.micro", "t2.small", "t2.medium", "t2.large"]
,
      "ConstraintDescription" : "must be a valid EC2 instance type."
    },

    "SecurityGroup" : {
      "Description" : "Security Group to use",
      "Type" : "AWS::EC2::SecurityGroup::Id"
    },

  },
  
  "Mappings" : {
    "AWSInstanceType2Arch" : {
      "t1.micro"    : { "Arch" : "PV64"   },
      "t2.nano"     : { "Arch" : "HVM64"  },
      "t2.micro"    : { "Arch" : "HVM64"  },
      "t2.small"    : { "Arch" : "HVM64"  },
      "t2.medium"   : { "Arch" : "HVM64"  },
      "t2.large"    : { "Arch" : "HVM64"  }

    },

    "AWSInstanceType2NATArch" : {
      "t1.micro"    : { "Arch" : "NATPV64"   },
      "t2.nano"     : { "Arch" : "NATHVM64"  },
      "t2.micro"    : { "Arch" : "NATHVM64"  },
      "t2.small"    : { "Arch" : "NATHVM64"  },
      "t2.medium"   : { "Arch" : "NATHVM64"  },
      "t2.large"    : { "Arch" : "NATHVM64"  }

    },
    
    "AWSRegionArch2AMI" : {
      "us-east-1"        : {"PV64" : "ami-2a69aa47", "HVM64" : "ami-9be6f38c", "HVMG2" : "ami-648d9973"}
    }
  },
    
  "Resources" : {     
      
    "PythonServerInstance": {  
      "Type": "AWS::EC2::Instance",
      "Properties": {
        "ImageId" : { "Fn::FindInMap" : [ "AWSRegionArch2AMI", { "Ref" : "AWS::Region" },
                    { "Fn::FindInMap" : [ "AWSInstanceType2Arch", { "Ref" : "InstanceType" }, "Arch" ] } ] },
        "InstanceType"   : { "Ref" : "InstanceType" },
        "SecurityGroupIds" : [ { "Ref" : "SecurityGroup" } ],
        "KeyName"        : { "Ref" : "KeyName" },
        "SubnetId"       : { "Ref" : "SubnetName" },
        "UserData" : {
          "Fn::Base64": {
            "Fn::Join": [
             "\n",
             [
               "#!/bin/bash",
               "yum update -y",
               "yum install python35 -y",
               "rm -f /usr/bin/python",
               "ln -s /usr/bin/python35 /usr/bin/python",
               "pip install --upgrade pip",
               "pip install awscli",
               "pip install awscli -U"
             ]
            ]
          }
        } 
      }
    },

  },
  
  "Outputs" : {
    "WebsiteURL" : {
      "Description" : "URL for newly created python dev host",
      "Value" : { "Fn::Join" : ["", ["http://", { "Fn::GetAtt" : [ "PythonServerInstance", "PublicDnsName" ]}]] }
    }
  }
}